{
  "project_info": {
    "project_number": "47894929881",
    "project_id": "llmchat-98298",
    "storage_bucket": "llmchat-98298.appspot.com"
  },
  "client": [
    {
      "client_info": {
        "mobilesdk_app_id": "1:47894929881:android:730a6951d622f4a03af9c8",
        "android_client_info": {
          "package_name": "com.llmchat"
        }
      },
      "oauth_client": [
        {
          "client_id": "47894929881-7vfctf5gkdt2ja97us4jrd4r09b0h7o5.apps.googleusercontent.com",
          "client_type": 1,
          "android_info": {
            "package_name": "com.llmchat",
            "certificate_hash": "5e8f16062ea3cd2c4a0d547876baa6f38cabf625"
          }
        },
        {
          "client_id": "47894929881-8c800l73552o9jr77nb45v7n549kic7l.apps.googleusercontent.com",
          "client_type": 3
        }
      ],
      "api_key": [
        {
          "current_key": "AIzaSyA1Ev2ggdbAqSKjslXYncRQBxlcDP-Ds_o"
        }
      ],
      "services": {
        "appinvite_service": {
          "other_platform_oauth_client": [
            {
              "client_id": "47894929881-8c800l73552o9jr77nb45v7n549kic7l.apps.googleusercontent.com",
              "client_type": 3
            }
          ]
        }
      }
    }
  ],
  "configuration_version": "1"
}